%!PS-Adobe-3.0 EPSF-3.0
%%Creator: cairo 1.14.6 (http://cairographics.org)
%%CreationDate: Tue Nov 14 17:24:04 2017
%%Pages: 1
%%DocumentData: Clean7Bit
%%LanguageLevel: 2
%%BoundingBox: 28 27 539 441
%%EndComments
%%BeginProlog
save
50 dict begin
/q { gsave } bind def
/Q { grestore } bind def
/cm { 6 array astore concat } bind def
/w { setlinewidth } bind def
/J { setlinecap } bind def
/j { setlinejoin } bind def
/M { setmiterlimit } bind def
/d { setdash } bind def
/m { moveto } bind def
/l { lineto } bind def
/c { curveto } bind def
/h { closepath } bind def
/re { exch dup neg 3 1 roll 5 3 roll moveto 0 rlineto
      0 exch rlineto 0 rlineto closepath } bind def
/S { stroke } bind def
/f { fill } bind def
/f* { eofill } bind def
/n { newpath } bind def
/W { clip } bind def
/W* { eoclip } bind def
/BT { } bind def
/ET { } bind def
/pdfmark where { pop globaldict /?pdfmark /exec load put }
    { globaldict begin /?pdfmark /pop load def /pdfmark
    /cleartomark load def end } ifelse
/BDC { mark 3 1 roll /BDC pdfmark } bind def
/EMC { mark /EMC pdfmark } bind def
/cairo_store_point { /cairo_point_y exch def /cairo_point_x exch def } def
/Tj { show currentpoint cairo_store_point } bind def
/TJ {
  {
    dup
    type /stringtype eq
    { show } { -0.001 mul 0 cairo_font_matrix dtransform rmoveto } ifelse
  } forall
  currentpoint cairo_store_point
} bind def
/cairo_selectfont { cairo_font_matrix aload pop pop pop 0 0 6 array astore
    cairo_font exch selectfont cairo_point_x cairo_point_y moveto } bind def
/Tf { pop /cairo_font exch def /cairo_font_matrix where
      { pop cairo_selectfont } if } bind def
/Td { matrix translate cairo_font_matrix matrix concatmatrix dup
      /cairo_font_matrix exch def dup 4 get exch 5 get cairo_store_point
      /cairo_font where { pop cairo_selectfont } if } bind def
/Tm { 2 copy 8 2 roll 6 array astore /cairo_font_matrix exch def
      cairo_store_point /cairo_font where { pop cairo_selectfont } if } bind def
/g { setgray } bind def
/rg { setrgbcolor } bind def
/d1 { setcachedevice } bind def
%%EndProlog
%%BeginSetup
%%EndSetup
%%Page: 1 1
%%BeginPageSetup
%%PageBoundingBox: 28 27 539 441
%%EndPageSetup
q 28 27 511 414 rectclip q
0.737255 0.745098 0.752941 rg
481.887 184.252 m 510.234 184.252 l 453.543 283.463 l 481.887 283.463 l
 436.535 362.834 l 433.699 362.834 l 433.699 325.983 l 427.746 325.983 l
 427.746 197.858 l 422.645 197.858 l 422.645 362.834 l 413.855 362.834 l
 368.504 283.467 l 396.848 283.467 l 340.156 184.252 l 368.504 184.252 l
 311.809 85.041 l 396.848 85.041 l 396.848 28.346 l 453.543 28.346 l 453.543
 85.041 l 538.582 85.041 l h
481.887 184.252 m f
0.137255 0.121569 0.12549 rg
0.25 w
0 J
0 j
[] 0.0 d
4 M 481.887 184.252 m 510.234 184.252 l 453.543 283.463 l 481.887 283.463 l
 436.535 362.834 l 433.699 362.834 l 433.699 325.983 l 427.746 325.983 l
 427.746 197.858 l 422.645 197.858 l 422.645 362.834 l 413.855 362.834 l
 368.504 283.467 l 396.848 283.467 l 340.156 184.252 l 368.504 184.252 l
 311.809 85.041 l 396.848 85.041 l 396.848 28.346 l 453.543 28.346 l 453.543
 85.041 l 538.582 85.041 l h
481.887 184.252 m S
0.737255 0.745098 0.752941 rg
198.426 184.252 m 226.773 184.252 l 170.078 283.463 l 198.426 283.463 l
 153.07 362.834 l 130.395 362.834 l 85.039 283.463 l 113.387 283.463 l 56.691
 184.252 l 85.039 184.252 l 28.348 85.041 l 113.387 85.041 l 113.387 28.346
 l 139.18 28.346 l 139.18 198.99 l 144.281 198.99 l 144.281 28.346 l 170.078
 28.346 l 170.078 85.041 l 255.117 85.041 l h
198.426 184.252 m f
0.137255 0.121569 0.12549 rg
198.426 184.252 m 226.773 184.252 l 170.078 283.463 l 198.426 283.463 l
 153.07 362.834 l 130.395 362.834 l 85.039 283.463 l 113.387 283.463 l 56.691
 184.252 l 85.039 184.252 l 28.348 85.041 l 113.387 85.041 l 113.387 28.346
 l 139.18 28.346 l 139.18 198.99 l 144.281 198.99 l 144.281 28.346 l 170.078
 28.346 l 170.078 85.041 l 255.117 85.041 l h
198.426 184.252 m S
1 0.94902 0 rg
184.254 408.338 m 154.871 412.608 l 141.73 439.233 l 128.594 412.608 l 
99.211 408.338 l 120.473 387.615 l 115.453 358.354 l 128.824 365.381 l 128.824
 387.147 l 128.824 394.276 134.602 400.053 141.73 400.053 c 148.859 400.053
 154.641 394.276 154.641 387.147 c 154.641 365.381 l 168.012 358.354 l 162.992
 387.615 l h
184.254 408.338 m f
0.137255 0.121569 0.12549 rg
184.254 408.338 m 154.871 412.608 l 141.73 439.233 l 128.594 412.608 l 
99.211 408.338 l 120.473 387.615 l 115.453 358.354 l 128.824 365.381 l 128.824
 387.147 l 128.824 394.276 134.602 400.053 141.73 400.053 c 148.859 400.053
 154.641 394.276 154.641 387.147 c 154.641 365.381 l 168.012 358.354 l 162.992
 387.615 l h
184.254 408.338 m S
0.905882 0.909804 0.913725 rg
130.395 362.553 m 130.395 387.498 l 130.395 393.76 135.469 398.834 141.73
 398.834 c 147.996 398.834 153.07 393.76 153.07 387.498 c 153.07 362.553
 l h
130.395 362.553 m f
0.137255 0.121569 0.12549 rg
130.395 362.553 m 130.395 387.498 l 130.395 393.76 135.469 398.834 141.73
 398.834 c 147.996 398.834 153.07 393.76 153.07 387.498 c 153.07 362.553
 l h
130.395 362.553 m S
Q Q
showpage
%%Trailer
end restore
%%EOF
